AWSTATS DATA FILE 7.7 (build 20180105)
# If you remove this file, all statistics for date 201902 will be lost/reset.
# Last config file used to build this data file was /home/proig/tmp/awstats/awstats.blog.proig.com.br.conf.

# Position (offset in bytes) in this file for beginning of each section for
# direct I/O access. If you made changes somewhere in this file, you should
# also remove completely the MAP section (AWStats will rewrite it at next
# update).
BEGIN_MAP 28
POS_GENERAL 2011                
POS_TIME 2684                
POS_VISITOR 7408                
POS_DAY 8418                
POS_DOMAIN 3331                
POS_LOGIN 3580                
POS_ROBOT 3735                
POS_WORMS 3940                
POS_EMAILSENDER 4071                
POS_EMAILRECEIVER 4214                
POS_SESSION 8763                
POS_SIDER 8936                
POS_FILETYPES 4349                
POS_DOWNLOADS 4601                
POS_OS 4649                
POS_BROWSER 4798                
POS_SCREENSIZE 5137                
POS_UNKNOWNREFERER 5211                
POS_UNKNOWNREFERERBROWSER 5451                
POS_ORIGIN 5601                
POS_SEREFERRALS 5737                
POS_PAGEREFS 5881                
POS_SEARCHWORDS 6029                
POS_KEYWORDS 6181                
POS_MISC 2347                
POS_ERRORS 6240                
POS_CLUSTER 3436                
POS_SIDER_404 6361                
END_MAP

# LastLine    = Date of last record processed - Last record line number in last log - Last record offset in last log - Last record signature value
# FirstTime   = Date of first visit for history file
# LastTime    = Date of last visit for history file
# LastUpdate  = Date of last update - Nb of parsed records - Nb of parsed old records - Nb of parsed new records - Nb of parsed corrupted - Nb of parsed dropped
# TotalVisits = Number of visits
# TotalUnique = Number of unique visitors
# MonthHostsKnown   = Number of hosts known
# MonthHostsUnKnown = Number of hosts unknown
BEGIN_GENERAL 8
LastLine 20190304222850 1 0 16757950378922
FirstTime 20190201040432
LastTime 20190221184452
LastUpdate 20190304231108 1 0 0 0 0
TotalVisits 29                  
TotalUnique 21                  
MonthHostsKnown 0                   
MonthHostsUnknown 24                  
END_GENERAL

# Misc ID - Pages - Hits - Bandwidth
BEGIN_MISC 10
PDFSupport 0 0 0
QuickTimeSupport 0 0 0
TotalMisc 0 0 0
WindowsMediaPlayerSupport 0 0 0
RealPlayerSupport 0 0 0
FlashSupport 0 0 0
JavaEnabled 0 0 0
JavascriptDisabled 0 0 0
DirectorSupport 0 0 0
AddToFavourites 0 38 0
END_MISC

# Hour - Pages - Hits - Bandwidth - Not viewed Pages - Not viewed Hits - Not viewed Bandwidth
BEGIN_TIME 24
0 5 45 1372515 4 10 87978
1 0 0 0 3 3 14557
2 0 0 0 1 3 29326
3 0 0 0 2 2 8364
4 1 1 26822 2 2 0
5 1 21 1270025 3 5 29326
6 0 0 0 0 0 0
7 0 0 0 2 2 0
8 2 2 56017 1 3 29326
9 0 0 0 0 0 0
10 0 0 0 0 0 0
11 0 0 0 0 0 0
12 26 26 52478 2 3 0
13 25 25 1175 6 6 27057
14 77 251 12326123 21 70 393394
15 69 81 408198 8 14 84904
16 13 13 29282 3 6 29326
17 43 158 7167216 4 11 74203
18 41 106 4435579 4 15 161293
19 30 30 1410 2 2 0
20 4 27 1513198 1 3 29326
21 0 0 0 3 3 14557
22 4 39 2224837 2 8 87978
23 3 11 623872 4 6 43883
END_TIME

# Domain - Pages - Hits - Bandwidth
# The 25 first Pages must be first (order not required for others)
BEGIN_DOMAIN 2
br 329 678 23918978
us 15 158 7589769
END_DOMAIN

# Cluster ID - Pages - Hits - Bandwidth
BEGIN_CLUSTER 0
END_CLUSTER

# Login - Pages - Hits - Bandwidth - Last visit
# The 10 first Pages must be first (order not required for others)
BEGIN_LOGIN 0
END_LOGIN

# Robot ID - Hits - Bandwidth - Last visit - Hits on robots.txt
# The 25 first Hits must be first (order not required for others)
BEGIN_ROBOT 2
blog 49 0 20190228183816 0
bot[\s_+:,\.\;\/\\-] 1 26252 20190211152052 0
END_ROBOT

# Worm ID - Hits - Bandwidth - Last visit
# The 5 first Hits must be first (order not required for others)
BEGIN_WORMS 0
END_WORMS

# EMail - Hits - Bandwidth - Last visit
# The 20 first Hits must be first (order not required for others)
BEGIN_EMAILSENDER 0
END_EMAILSENDER

# EMail - Hits - Bandwidth - Last visit
# The 20 first hits must be first (order not required for others)
BEGIN_EMAILRECEIVER 0
END_EMAILRECEIVER

# Files type - Hits - Bandwidth - Bandwidth without compression - Bandwidth after compression
BEGIN_FILETYPES 10
jpg 45 2521077 0 0
png 71 8698401 0 0
svg 1 1521 0 0
js 259 8331210 0 0
Unknown 4 13444 0 0
gif 4 26206 0 0
php 289 6379350 0 0
html 51 1445390 0 0
css 94 2939622 0 0
jpeg 18 1152526 0 0
END_FILETYPES

# Downloads - Hits - Bandwidth
BEGIN_DOWNLOADS 0
END_DOWNLOADS

# OS ID - Hits
BEGIN_OS ID - Hits - Pages 6
linuxandroid 220 18
win7 535 309
Unknown 10 10
ios_iphone 21 1
linux 1 1
win10 49 5
END_OS

# Browser ID - Hits - Pages
BEGIN_BROWSER 13
chrome72.0.3626.105 51 6
opera50.2.2426.136249 20 1
safari12.0 21 1
chrome72.0.3626.96 10 2
chrome72.0.3626.76 73 6
chrome63.0.3239.111 21 1
Unknown 9 9
chrome70.0.3538.64 24 1
chrome71.0.3578.99 21 1
mozilla 1 1
chrome60.0.3112.101 1 1
chrome72.0.3626.81 535 309
chrome71.0.3578.98 49 5
END_BROWSER

# Screen size - Hits
BEGIN_SCREENSIZE 0
END_SCREENSIZE

# Unknown referer OS - Last visit date
BEGIN_UNKNOWNREFERER 3
WhatsApp/2.19.17_A 20190205143447
WhatsApp/2.19.34_A 20190221184437
Mozilla/5.0_(compatible;_NetcraftSurveyAgent/1.0;__info@netcraft.com) 20190201040432
END_UNKNOWNREFERER

# Unknown referer Browser - Last visit date
BEGIN_UNKNOWNREFERERBROWSER 2
WhatsApp/2.19.34_A 20190221184437
WhatsApp/2.19.17_A 20190205143447
END_UNKNOWNREFERERBROWSER

# Origin - Pages - Hits 
BEGIN_ORIGIN 6
From0 40 40
From1 0 0
From2 0 0
From3 0 0
From4 304 796
From5 0 0
END_ORIGIN

# Search engine referers ID - Pages - Hits
BEGIN_SEREFERRALS 0
END_SEREFERRALS

# External page referers - Pages - Hits
# The 25 first Pages must be first (order not required for others)
BEGIN_PAGEREFS 0
END_PAGEREFS

# Search keyphrases - Number of search
# The 10 first number of search must be first (order not required for others)
BEGIN_SEARCHWORDS 0
END_SEARCHWORDS

# Search keywords - Number of search
# The 25 first number of search must be first (order not required for others)
BEGIN_KEYWORDS 0
END_KEYWORDS

# Errors - Hits - Bandwidth
BEGIN_ERRORS 4
302 5 0
301 6 242
403 4 10920
404 74 1107384
END_ERRORS

# URL with 404 errors - Hits - Last URL referrer
BEGIN_SIDER_404 12
/img/FlechaDireitaCarrossel.png 4 http://blog.proig.com.br/
/fazu-indio-gigante-se-voce-se-diz-criador-precisa-ficar-por-dentro-desta-noticia/img/flechaEsquerdaCarrossel.png 26 http://blog.proig.com.br/fazu-indio-gigante-se-voce-se-diz-criador-precisa-ficar-por-dentro-desta-noticia/
/wp-admin/admin-ajax.php 1 http://blog.proig.com.br/wp-admin/customize.php
/img/flechaEsquerdaCarrossel.png 4 http://blog.proig.com.br/
/wp-adm 1 -
/wp 1 -
/wp/admin 1 -
/fazu-indio-gigante-se-voce-se-diz-criador-precisa-ficar-por-dentro-desta-noticia/img/FlechaDireitaCarrossel.png 27 http://blog.proig.com.br/fazu-indio-gigante-se-voce-se-diz-criador-precisa-ficar-por-dentro-desta-noticia/
/wp-login/ 1 -
/wp-adm/ 1 -
/wp-login 1 -
/wp-login.php 6 -
END_SIDER_404

# Host - Pages - Hits - Bandwidth - Last visit date - [Start date of last visit] - [Last page of last visit]
# [Start date of last visit] and [Last page of last visit] are saved only if session is not finished
# The 25 first Hits must be first (order not required for others)
BEGIN_VISITOR 24
191.54.208.246 200 296 5957406 20190206200527
179.104.238.211 110 240 9999726 20190205154727
66.249.85.26 8 59 3364940 20190219223724
177.139.195.138 5 49 2622435 20190205145959
66.249.85.25 3 52 1616923 20190219180948
189.15.49.85 2 2 55774 20190204150907
179.104.206.209 2 2 56015 20190208235917
177.53.184.226 1 21 1270017 20190209000203
66.249.85.16 1 4 28009 20190221165815
189.41.211.12 1 1 18430 20190201222201
177.94.221.96 1 20 1269201 20190220175856
187.109.2.232 1 21 1270014 20190221184452
68.183.148.163 1 1 26822 20190201040432
66.249.85.24 1 39 1986403 20190220085630
179.104.207.38 1 1 28009 20190221184437
201.5.234.112 1 1 28007 20190220085614
177.191.175.11 1 1 27480 20190202001644
179.104.203.100 1 1 28006 20190219180913
201.48.82.217 1 1 18433 20190203004433
187.119.232.71 1 14 1041200 20190221054432
18.236.118.121 1 1 26822 20190204153810
66.249.85.14 0 1 0 
66.249.85.15 0 1 539850 
187.119.228.62 0 7 228825 
END_VISITOR

# Date - Pages - Hits - Bandwidth - Visits
BEGIN_DAY 12
20190201 4 39 2223646 3
20190202 2 12 55771 2
20190203 2 12 46727 2
20190204 5 40 1623948 4
20190205 115 289 12622161 2
20190206 200 296 5957406 2
20190208 3 11 623872 2
20190209 1 21 1270017 1
20190219 5 45 2624074 4
20190220 3 22 1325218 3
20190221 4 44 2596057 4
20190228 0 5 539850 0
END_DAY

# Session range - Number of visits
BEGIN_SESSION 4
30s-2mn 1
2mn-5mn 2
0s-30s 23
1h+ 3
END_SESSION

# URL - Pages - Bandwidth - Entry - Exit
# The 25 first Pages must be first (order not required for others)
BEGIN_SIDER 19
/wp-admin/admin-ajax.php 253 30586 1 3
/fazu-indio-gigante-se-voce-se-diz-criador-precisa-ficar-por-dentro-desta-noticia/ 35 961293 25 24
/wp-admin/load-scripts.php 11 1871932 0 0
/ 10 326602 2 2
/wp-admin/edit.php 9 445783 0 0
/wp-admin/load-styles.php 6 1924394 0 0
/wp-admin/ 3 152405 1 0
/wp-json/wp/v2/taxonomies 2 5928 0 0
/painel 2 7516 0 0
/wp-includes/js/tinymce/wp-tinymce.php 2 710072 0 0
/wp-admin/post-new.php 2 580930 0 0
/wp-json/wp/v2/users/ 2 1136 0 0
/wp-admin/index.php 1 51269 0 0
/wp-admin/themes.php 1 46866 0 0
/wp-admin/customize.php 1 375950 0 0
/wp-admin/upload.php 1 88293 0 0
/wp-admin/widgets.php 1 204740 0 0
/wp-admin/edit-tags.php 1 48535 0 0
/painel/ 1 3954 0 0
END_SIDER
