AWSTATS DATA FILE 7.7 (build 20180105)
# If you remove this file, all statistics for date 201901 will be lost/reset.
# Last config file used to build this data file was /home/proig/tmp/awstats/awstats.blog.proig.com.br.conf.

# Position (offset in bytes) in this file for beginning of each section for
# direct I/O access. If you made changes somewhere in this file, you should
# also remove completely the MAP section (AWStats will rewrite it at next
# update).
BEGIN_MAP 28
POS_GENERAL 2011                
POS_TIME 2683                
POS_VISITOR 8285                
POS_DAY 8866                
POS_DOMAIN 3278                
POS_LOGIN 3550                
POS_ROBOT 3705                
POS_WORMS 3864                
POS_EMAILSENDER 3995                
POS_EMAILRECEIVER 4138                
POS_SESSION 9070                
POS_SIDER 9265                
POS_FILETYPES 4273                
POS_DOWNLOADS 4556                
POS_OS 4749                
POS_BROWSER 4896                
POS_SCREENSIZE 5045                
POS_UNKNOWNREFERER 5119                
POS_UNKNOWNREFERERBROWSER 5335                
POS_ORIGIN 5546                
POS_SEREFERRALS 5682                
POS_PAGEREFS 5826                
POS_SEARCHWORDS 5974                
POS_KEYWORDS 6126                
POS_MISC 2346                
POS_ERRORS 6185                
POS_CLUSTER 3406                
POS_SIDER_404 6340                
END_MAP

# LastLine    = Date of last record processed - Last record line number in last log - Last record offset in last log - Last record signature value
# FirstTime   = Date of first visit for history file
# LastTime    = Date of last visit for history file
# LastUpdate  = Date of last update - Nb of parsed records - Nb of parsed old records - Nb of parsed new records - Nb of parsed corrupted - Nb of parsed dropped
# TotalVisits = Number of visits
# TotalUnique = Number of unique visitors
# MonthHostsKnown   = Number of hosts known
# MonthHostsUnKnown = Number of hosts unknown
BEGIN_GENERAL 8
LastLine 20190201040412 1 0 8989268897645
FirstTime 20190118144511
LastTime 20190128135511
LastUpdate 20190201210629 1 0 0 0 0
TotalVisits 17                  
TotalUnique 11                  
MonthHostsKnown 0                   
MonthHostsUnknown 13                  
END_GENERAL

# Misc ID - Pages - Hits - Bandwidth
BEGIN_MISC 10
JavaEnabled 0 0 0
FlashSupport 0 0 0
JavascriptDisabled 0 0 0
PDFSupport 0 0 0
AddToFavourites 0 76 0
RealPlayerSupport 0 0 0
QuickTimeSupport 0 0 0
WindowsMediaPlayerSupport 0 0 0
DirectorSupport 0 0 0
TotalMisc 0 0 0
END_MISC

# Hour - Pages - Hits - Bandwidth - Not viewed Pages - Not viewed Hits - Not viewed Bandwidth
BEGIN_TIME 24
0 0 0 0 0 0 0
1 0 0 0 0 0 0
2 0 0 0 0 0 0
3 0 0 0 0 0 0
4 0 0 0 0 0 0
5 0 0 0 1 1 0
6 0 0 0 0 0 0
7 0 0 0 0 0 0
8 0 0 0 3 3 32310
9 0 0 0 0 0 0
10 0 0 0 0 0 0
11 0 0 0 0 0 0
12 80 252 11347653 19 31 160627
13 5 12 229867 1 3 45201
14 18 56 2330937 6 22 90390
15 112 284 10479957 9 90 479909
16 10 76 4982788 4 13 174421
17 1 1 44369 1 1 0
18 2 24 1631115 1 3 32310
19 0 0 0 0 0 0
20 0 0 0 2 2 0
21 0 0 0 2 2 16155
22 2 23 1630909 1 3 32310
23 4 48 3262920 5 12 116057
END_TIME

# Domain - Pages - Hits - Bandwidth
# The 25 first Pages must be first (order not required for others)
BEGIN_DOMAIN 4
br 226 666 29080163
us 7 107 6815829
fr 1 1 44369
gb 0 2 154
END_DOMAIN

# Cluster ID - Pages - Hits - Bandwidth
BEGIN_CLUSTER 0
END_CLUSTER

# Login - Pages - Hits - Bandwidth - Last visit
# The 10 first Pages must be first (order not required for others)
BEGIN_LOGIN 0
END_LOGIN

# Robot ID - Hits - Bandwidth - Last visit - Hits on robots.txt
# The 25 first Hits must be first (order not required for others)
BEGIN_ROBOT 1
blog 23 0 20190128135505 0
END_ROBOT

# Worm ID - Hits - Bandwidth - Last visit
# The 5 first Hits must be first (order not required for others)
BEGIN_WORMS 0
END_WORMS

# EMail - Hits - Bandwidth - Last visit
# The 20 first Hits must be first (order not required for others)
BEGIN_EMAILSENDER 0
END_EMAILSENDER

# EMail - Hits - Bandwidth - Last visit
# The 20 first hits must be first (order not required for others)
BEGIN_EMAILRECEIVER 0
END_EMAILRECEIVER

# Files type - Hits - Bandwidth - Bandwidth without compression - Bandwidth after compression
BEGIN_FILETYPES 12
txt 3 218 0 0
png 73 7604530 0 0
jpeg 4 202966 0 0
gif 4 37788 0 0
html 52 2286881 0 0
woff 2 67788 0 0
Unknown 41 84786 0 0
js 274 7351806 0 0
jpg 67 7208078 0 0
css 114 3695317 0 0
php 139 7395794 0 0
svg 3 4563 0 0
END_FILETYPES

# Downloads - Hits - Bandwidth
BEGIN_DOWNLOADS 2
/.well-known/pki-validation/20ED90E12333374651F34F902AE1B895.txt 2 0 154
/.well-known/pki-validation/6547E2E73964BCEE9FF98217B7C714EE.txt 1 0 64
END_DOWNLOADS

# OS ID - Hits
BEGIN_OS ID - Hits - Pages 6
macosx11 32 3
win10 370 135
linuxandroid 107 8
Unknown 6 3
win7 51 6
linux 210 79
END_OS

# Browser ID - Hits - Pages
BEGIN_BROWSER 5
chrome71.0.3578.98 453 144
Unknown 6 3
chrome71.0.3578.99 107 8
firefox58.0 1 1
firefox64.0 209 78
END_BROWSER

# Screen size - Hits
BEGIN_SCREENSIZE 0
END_SCREENSIZE

# Unknown referer OS - Last visit date
BEGIN_UNKNOWNREFERER 4
WhatsApp/2.19.11_i 20190128124338
WhatsApp/2.18.380_A 20190122225209
WhatsApp/2.19.17_A 20190128125451
COMODO_DCV 20190118143354
END_UNKNOWNREFERER

# Unknown referer Browser - Last visit date
BEGIN_UNKNOWNREFERERBROWSER 4
COMODO_DCV 20190118143354
WhatsApp/2.19.17_A 20190128125451
WhatsApp/2.19.11_i 20190128124338
WhatsApp/2.18.380_A 20190122225209
END_UNKNOWNREFERERBROWSER

# Origin - Pages - Hits 
BEGIN_ORIGIN 6
From0 26 30
From1 0 0
From2 0 0
From3 0 0
From4 208 746
From5 0 0
END_ORIGIN

# Search engine referers ID - Pages - Hits
BEGIN_SEREFERRALS 0
END_SEREFERRALS

# External page referers - Pages - Hits
# The 25 first Pages must be first (order not required for others)
BEGIN_PAGEREFS 0
END_PAGEREFS

# Search keyphrases - Number of search
# The 10 first number of search must be first (order not required for others)
BEGIN_SEARCHWORDS 0
END_SEARCHWORDS

# Search keywords - Number of search
# The 25 first number of search must be first (order not required for others)
BEGIN_KEYWORDS 0
END_KEYWORDS

# Errors - Hits - Bandwidth
BEGIN_ERRORS 7
403 6 16380
302 7 0
206 4 90362
301 8 1210
201 1 3734
500 1 272
404 60 1067732
END_ERRORS

# URL with 404 errors - Hits - Last URL referrer
BEGIN_SIDER_404 13
/wp-login.php 3 -
/fazu-indio-gigante-se-voce-se-diz-criador-precisa-ficar-por-dentro-desta-noticia/img/FlechaDireitaCarrossel.png 2 http://blog.proig.com.br/fazu-indio-gigante-se-voce-se-diz-criador-precisa-ficar-por-dentro-desta-noticia/
/galo-gigante-participa-do-curso-de-inseminacao-artificial-realizado-pela-ufla-12/img/FlechaDireitaCarrossel.png 1 http://blog.proig.com.br/galo-gigante-participa-do-curso-de-inseminacao-artificial-realizado-pela-ufla-12/
/galo-gigante-participa-do-curso-de-inseminacao-artificial-realizado-pela-ufla-8/img/flechaEsquerdaCarrossel.png 1 http://blog.proig.com.br/galo-gigante-participa-do-curso-de-inseminacao-artificial-realizado-pela-ufla-8/
/wp-adminhttp:/blog.proig.com.br/wp-admin 1 -
/img/FlechaDireitaCarrossel.png 22 http://blog.proig.com.br/
/wp-login 2 -
/admin 1 -
/galo-gigante-participa-do-curso-de-inseminacao-artificial-realizado-pela-ufla-12/img/flechaEsquerdaCarrossel.png 1 http://blog.proig.com.br/galo-gigante-participa-do-curso-de-inseminacao-artificial-realizado-pela-ufla-12/
/img/flechaEsquerdaCarrossel.png 22 http://blog.proig.com.br/
/fazu-indio-gigante-se-voce-se-diz-criador-precisa-ficar-por-dentro-desta-noticia/img/flechaEsquerdaCarrossel.png 2 http://blog.proig.com.br/fazu-indio-gigante-se-voce-se-diz-criador-precisa-ficar-por-dentro-desta-noticia/
/galo-gigante-participa-do-curso-de-inseminacao-artificial-realizado-pela-ufla-8/painel 1 -
/galo-gigante-participa-do-curso-de-inseminacao-artificial-realizado-pela-ufla-8/img/FlechaDireitaCarrossel.png 1 http://blog.proig.com.br/galo-gigante-participa-do-curso-de-inseminacao-artificial-realizado-pela-ufla-8/
END_SIDER_404

# Host - Pages - Hits - Bandwidth - Last visit date - [Start date of last visit] - [Last page of last visit]
# [Start date of last visit] and [Last page of last visit] are saved only if session is not finished
# The 25 first Hits must be first (order not required for others)
BEGIN_VISITOR 13
191.179.228.26 128 317 11736253 20190118162231
177.191.178.221 79 210 8404601 20190128135511
187.255.129.233 11 86 5498865 20190128124338
189.15.49.24 4 27 1720668 20190118164527
66.249.85.25 4 39 2898525 20190125154418
201.48.135.127 2 24 1631119 20190122234621
66.249.85.24 2 34 2199820 20190128125458
186.244.28.88 1 1 44368 20190123165812
189.104.165.103 1 1 44289 20190122225209
62.4.14.198 1 1 44369 20190119170415
66.249.85.26 1 33 1717420 20190122234026
149.56.240.81 0 1 64 
91.199.212.132 0 2 154 
END_VISITOR

# Date - Pages - Hits - Bandwidth - Visits
BEGIN_DAY 6
20190118 132 347 13457139 2
20190119 1 1 44369 1
20190122 6 71 4893829 4
20190123 4 46 3261287 3
20190125 7 48 2750736 4
20190128 84 263 11533155 3
END_DAY

# Session range - Number of visits
BEGIN_SESSION 6
15mn-30mn 1
30s-2mn 1
2mn-5mn 1
1h+ 2
0s-30s 11
30mn-1h 1
END_SESSION

# URL - Pages - Bandwidth - Entry - Exit
# The 25 first Pages must be first (order not required for others)
BEGIN_SIDER 35
/wp-admin/admin.php 56 2479030 0 0
/wp-admin/admin-ajax.php 53 18990 0 0
/ 43 1974844 16 14
/wp-admin/load-scripts.php 11 1639616 0 0
/wp-json/wp/v2/posts/60/autosaves 9 44646 0 0
/wp-json/wp/v2/types/wp_block 8 2816 0 0
/wp-json/wp/v2/blocks 8 16 0 0
/wp-admin/load-styles.php 5 1765295 0 0
/wp-json/wp/v2/tags 4 274 0 0
/wp-admin/ 3 154019 0 0
/painel 3 11266 0 1
/fazu-indio-gigante-se-voce-se-diz-criador-precisa-ficar-por-dentro-desta-noticia/ 3 92786 1 2
/wp-admin/edit.php 2 156869 0 0
/wp-includes/js/tinymce/wp-tinymce.php 2 710072 0 0
/wp-admin/plugins.php 2 127668 0 0
/wp-json/wp/v2/categories 2 260 0 0
/wp-admin/options-reading.php 2 63887 0 0
/wp-json/wp/v2/posts/60 1 10949 0 0
/wp-admin/async-upload.php 1 1944 0 0
/wp-admin/post-new.php 1 290637 0 0
/wp-json/wp/v2/taxonomies 1 2964 0 0
/wp-json/oembed/1.0/proxy 1 711 0 0
/galo-gigante-participa-do-curso-de-inseminacao-artificial-realizado-pela-ufla-12/ 1 27681 0 0
/wp-includes/js/tinymce/skins/lightgray/fonts/tinymce.woff 1 18720 0 0
/wp-json/wp/v2/media/61 1 3734 0 0
/wp-content/plugins/redux-framework/ReduxCore/assets/css/vendor/elusive-icons/fonts/elusiveicons-webfont.woff 1 49068 0 0
/wp-json/wp/v2/taxonomies/category 1 1498 0 0
/wp-json/wp/v2/users/ 1 568 0 0
/wp-admin/users.php 1 38851 0 0
/wp-json/wp/v2/media/62 1 4211 0 0
/wp-json/wp/v2/taxonomies/post_tag 1 1441 0 0
/wp-login.php 1 2878 0 0
/wp-admin/options-writing.php 1 31885 0 0
/wp-admin/options-general.php 1 68172 0 0
/galo-gigante-participa-do-curso-de-inseminacao-artificial-realizado-pela-ufla-8/ 1 36983 0 0
END_SIDER
