AWSTATS DATA FILE 7.7 (build 20180105)
# If you remove this file, all statistics for date 201811 will be lost/reset.
# Last config file used to build this data file was /home/proig/tmp/awstats/awstats.classificados.proig.com.br.conf.

# Position (offset in bytes) in this file for beginning of each section for
# direct I/O access. If you made changes somewhere in this file, you should
# also remove completely the MAP section (AWStats will rewrite it at next
# update).
BEGIN_MAP 28
POS_GENERAL 2020                
POS_TIME 2692                
POS_VISITOR 5885                
POS_DAY 6034                
POS_DOMAIN 3180                
POS_LOGIN 3418                
POS_ROBOT 3573                
POS_WORMS 3705                
POS_EMAILSENDER 3836                
POS_EMAILRECEIVER 3979                
POS_SESSION 6133                
POS_SIDER 6289                
POS_FILETYPES 4114                
POS_DOWNLOADS 4227                
POS_OS 4275                
POS_BROWSER 4361                
POS_SCREENSIZE 4461                
POS_UNKNOWNREFERER 4535                
POS_UNKNOWNREFERERBROWSER 4622                
POS_ORIGIN 4704                
POS_SEREFERRALS 4836                
POS_PAGEREFS 4980                
POS_SEARCHWORDS 5128                
POS_KEYWORDS 5280                
POS_MISC 2356                
POS_ERRORS 5339                
POS_CLUSTER 3274                
POS_SIDER_404 5423                
END_MAP

# LastLine    = Date of last record processed - Last record line number in last log - Last record offset in last log - Last record signature value
# FirstTime   = Date of first visit for history file
# LastTime    = Date of last visit for history file
# LastUpdate  = Date of last update - Nb of parsed records - Nb of parsed old records - Nb of parsed new records - Nb of parsed corrupted - Nb of parsed dropped
# TotalVisits = Number of visits
# TotalUnique = Number of unique visitors
# MonthHostsKnown   = Number of hosts known
# MonthHostsUnKnown = Number of hosts unknown
BEGIN_GENERAL 8
LastLine 20181203144240 1 0 12833775251979
FirstTime 20181104151353
LastTime 20181127135605
LastUpdate 20181203204449 1 0 0 0 0
TotalVisits 3                   
TotalUnique 2                   
MonthHostsKnown 0                   
MonthHostsUnknown 2                   
END_GENERAL

# Misc ID - Pages - Hits - Bandwidth
BEGIN_MISC 10
PDFSupport 0 0 0
RealPlayerSupport 0 0 0
DirectorSupport 0 0 0
TotalMisc 0 0 0
QuickTimeSupport 0 0 0
AddToFavourites 0 0 0
WindowsMediaPlayerSupport 0 0 0
JavaEnabled 0 0 0
FlashSupport 0 0 0
JavascriptDisabled 0 0 0
END_MISC

# Hour - Pages - Hits - Bandwidth - Not viewed Pages - Not viewed Hits - Not viewed Bandwidth
BEGIN_TIME 24
0 0 0 0 0 0 0
1 0 0 0 0 0 0
2 0 0 0 0 0 0
3 0 0 0 2 2 0
4 0 0 0 0 0 0
5 0 0 0 0 0 0
6 0 0 0 0 0 0
7 0 0 0 0 0 0
8 0 0 0 0 0 0
9 0 0 0 0 0 0
10 3 6 24538 0 3 0
11 0 0 0 0 0 0
12 0 0 0 0 0 0
13 7 9 44032 0 4 0
14 0 0 0 0 0 0
15 1 1 5489 0 0 0
16 0 0 0 0 0 0
17 0 0 0 0 0 0
18 0 0 0 0 0 0
19 0 0 0 0 0 0
20 0 0 0 0 0 0
21 0 0 0 0 0 0
22 0 0 0 0 0 0
23 0 0 0 0 0 0
END_TIME

# Domain - Pages - Hits - Bandwidth
# The 25 first Pages must be first (order not required for others)
BEGIN_DOMAIN 2
br 10 15 68570
us 1 1 5489
END_DOMAIN

# Cluster ID - Pages - Hits - Bandwidth
BEGIN_CLUSTER 0
END_CLUSTER

# Login - Pages - Hits - Bandwidth - Last visit
# The 10 first Pages must be first (order not required for others)
BEGIN_LOGIN 0
END_LOGIN

# Robot ID - Hits - Bandwidth - Last visit - Hits on robots.txt
# The 25 first Hits must be first (order not required for others)
BEGIN_ROBOT 0
END_ROBOT

# Worm ID - Hits - Bandwidth - Last visit
# The 5 first Hits must be first (order not required for others)
BEGIN_WORMS 0
END_WORMS

# EMail - Hits - Bandwidth - Last visit
# The 20 first Hits must be first (order not required for others)
BEGIN_EMAILSENDER 0
END_EMAILSENDER

# EMail - Hits - Bandwidth - Last visit
# The 20 first hits must be first (order not required for others)
BEGIN_EMAILRECEIVER 0
END_EMAILRECEIVER

# Files type - Hits - Bandwidth - Bandwidth without compression - Bandwidth after compression
BEGIN_FILETYPES 3
html 11 57699 0 0
css 1 1430 0 0
png 4 14930 0 0
END_FILETYPES

# Downloads - Hits - Bandwidth
BEGIN_DOWNLOADS 0
END_DOWNLOADS

# OS ID - Hits
BEGIN_OS ID - Hits - Pages 2
win7 15 10
linux 1 1
END_OS

# Browser ID - Hits - Pages
BEGIN_BROWSER 2
chrome70.0.3538.102 15 10
chrome60.0.3112.101 1 1
END_BROWSER

# Screen size - Hits
BEGIN_SCREENSIZE 0
END_SCREENSIZE

# Unknown referer OS - Last visit date
BEGIN_UNKNOWNREFERER 0
END_UNKNOWNREFERER

# Unknown referer Browser - Last visit date
BEGIN_UNKNOWNREFERERBROWSER 0
END_UNKNOWNREFERERBROWSER

# Origin - Pages - Hits 
BEGIN_ORIGIN 6
From0 1 1
From1 0 0
From2 0 0
From3 0 0
From4 10 15
From5 0 0
END_ORIGIN

# Search engine referers ID - Pages - Hits
BEGIN_SEREFERRALS 0
END_SEREFERRALS

# External page referers - Pages - Hits
# The 25 first Pages must be first (order not required for others)
BEGIN_PAGEREFS 0
END_PAGEREFS

# Search keyphrases - Number of search
# The 10 first number of search must be first (order not required for others)
BEGIN_SEARCHWORDS 0
END_SEARCHWORDS

# Search keywords - Number of search
# The 25 first number of search must be first (order not required for others)
BEGIN_KEYWORDS 0
END_KEYWORDS

# Errors - Hits - Bandwidth
BEGIN_ERRORS 1
404 8 0
END_ERRORS

# URL with 404 errors - Hits - Last URL referrer
BEGIN_SIDER_404 3
//xmlrpc.php 1 http://www.google.com.hk
/css/checked.png 6 http://www.classificados.proig.com.br/css/style.css
//wp-login.php 1 http://www.google.com.hk
END_SIDER_404

# Host - Pages - Hits - Bandwidth - Last visit date - [Start date of last visit] - [Last page of last visit]
# [Start date of last visit] and [Last page of last visit] are saved only if session is not finished
# The 25 first Hits must be first (order not required for others)
BEGIN_VISITOR 2
177.85.7.90 10 15 68570 20181127135605
54.146.188.41 1 1 5489 20181104151353
END_VISITOR

# Date - Pages - Hits - Bandwidth - Visits
BEGIN_DAY 2
20181104 1 1 5489 1
20181127 10 15 68570 2
END_DAY

# Session range - Number of visits
BEGIN_SESSION 2
0s-30s 2
2mn-5mn 1
END_SESSION

# URL - Pages - Bandwidth - Entry - Exit
# The 25 first Pages must be first (order not required for others)
BEGIN_SIDER 1
/ 11 57699 3 3
END_SIDER
