AWSTATS DATA FILE 7.7 (build 20180105)
# If you remove this file, all statistics for date 201903 will be lost/reset.
# Last config file used to build this data file was /home/proig/tmp/awstats/ssl/awstats.proig.com.br.conf.

# Position (offset in bytes) in this file for beginning of each section for
# direct I/O access. If you made changes somewhere in this file, you should
# also remove completely the MAP section (AWStats will rewrite it at next
# update).
BEGIN_MAP 28
POS_GENERAL 2010                
POS_TIME 2683                
POS_VISITOR 6474                
POS_DAY 7347                
POS_DOMAIN 3279                
POS_LOGIN 3541                
POS_ROBOT 3696                
POS_WORMS 3913                
POS_EMAILSENDER 4044                
POS_EMAILRECEIVER 4187                
POS_SESSION 7744                
POS_SIDER 7891                
POS_FILETYPES 4322                
POS_DOWNLOADS 4404                
POS_OS 4452                
POS_BROWSER 4577                
POS_SCREENSIZE 4725                
POS_UNKNOWNREFERER 4799                
POS_UNKNOWNREFERERBROWSER 5029                
POS_ORIGIN 5169                
POS_SEREFERRALS 5301                
POS_PAGEREFS 5445                
POS_SEARCHWORDS 5593                
POS_KEYWORDS 5745                
POS_MISC 2347                
POS_ERRORS 5804                
POS_CLUSTER 3397                
POS_SIDER_404 5913                
END_MAP

# LastLine    = Date of last record processed - Last record line number in last log - Last record offset in last log - Last record signature value
# FirstTime   = Date of first visit for history file
# LastTime    = Date of last visit for history file
# LastUpdate  = Date of last update - Nb of parsed records - Nb of parsed old records - Nb of parsed new records - Nb of parsed corrupted - Nb of parsed dropped
# TotalVisits = Number of visits
# TotalUnique = Number of unique visitors
# MonthHostsKnown   = Number of hosts known
# MonthHostsUnKnown = Number of hosts unknown
BEGIN_GENERAL 8
LastLine 20190324172629 6 856 9919462908124
FirstTime 20190301020933
LastTime 20190323175838
LastUpdate 20190325023745 6 0 6 0 0
TotalVisits 28                  
TotalUnique 21                  
MonthHostsKnown 0                   
MonthHostsUnknown 21                  
END_GENERAL

# Misc ID - Pages - Hits - Bandwidth
BEGIN_MISC 10
WindowsMediaPlayerSupport 0 0 0
AddToFavourites 0 0 0
DirectorSupport 0 0 0
RealPlayerSupport 0 0 0
TotalMisc 0 0 0
FlashSupport 0 0 0
PDFSupport 0 0 0
JavascriptDisabled 0 0 0
QuickTimeSupport 0 0 0
JavaEnabled 0 0 0
END_MISC

# Hour - Pages - Hits - Bandwidth - Not viewed Pages - Not viewed Hits - Not viewed Bandwidth
BEGIN_TIME 24
0 0 0 0 1 1 35
1 0 0 0 3 4 37971
2 1 1 1313 7 7 185989
3 0 0 0 3 3 110034
4 1 1 1313 3 3 73327
5 1 1 1313 4 6 37959
6 2 2 2626 3 4 37971
7 2 2 2626 1 1 52
8 2 2 2626 2 3 36646
9 3 3 3939 1 1 35
10 3 3 3939 3 5 36658
11 4 4 5252 0 0 0
12 1 1 1313 1 1 1313
13 0 0 0 3 3 1417
14 3 3 3939 1 1 1313
15 0 0 0 5 5 4026
16 0 0 0 2 3 52
17 1 1 1313 5 5 148018
18 0 0 0 3 3 39284
19 1 1 1313 2 2 37959
20 0 0 0 0 0 0
21 0 0 0 4 4 110014
22 1 1 1313 2 3 1313
23 2 2 2626 8 8 1313
END_TIME

# Domain - Pages - Hits - Bandwidth
# The 25 first Pages must be first (order not required for others)
BEGIN_DOMAIN 4
us 24 24 31512
cn 2 2 2626
ru 1 1 1313
fr 1 1 1313
END_DOMAIN

# Cluster ID - Pages - Hits - Bandwidth
BEGIN_CLUSTER 0
END_CLUSTER

# Login - Pages - Hits - Bandwidth - Last visit
# The 10 first Pages must be first (order not required for others)
BEGIN_LOGIN 0
END_LOGIN

# Robot ID - Hits - Bandwidth - Last visit - Hits on robots.txt
# The 25 first Hits must be first (order not required for others)
BEGIN_ROBOT 2
bot[\s_+:,\.\;\/\\-] 15 19695 20190323024733 0
no_user_agent 2 2626 20190316234244 0
END_ROBOT

# Worm ID - Hits - Bandwidth - Last visit
# The 5 first Hits must be first (order not required for others)
BEGIN_WORMS 0
END_WORMS

# EMail - Hits - Bandwidth - Last visit
# The 20 first Hits must be first (order not required for others)
BEGIN_EMAILSENDER 0
END_EMAILSENDER

# EMail - Hits - Bandwidth - Last visit
# The 20 first hits must be first (order not required for others)
BEGIN_EMAILRECEIVER 0
END_EMAILRECEIVER

# Files type - Hits - Bandwidth - Bandwidth without compression - Bandwidth after compression
BEGIN_FILETYPES 1
html 28 36764 0 0
END_FILETYPES

# Downloads - Hits - Bandwidth
BEGIN_DOWNLOADS 0
END_DOWNLOADS

# OS ID - Hits
BEGIN_OS ID - Hits - Pages 5
win10 1 1
macosx12 7 7
macosx11 2 2
Unknown 17 17
linux 1 1
END_OS

# Browser ID - Hits - Pages
BEGIN_BROWSER 6
firefox60.0 1 1
chrome61.0.3163.100 7 7
Unknown 13 13
mozilla 4 4
firefox47.0 2 2
firefox64.0 1 1
END_BROWSER

# Screen size - Hits
BEGIN_SCREENSIZE 0
END_SCREENSIZE

# Unknown referer OS - Last visit date
BEGIN_UNKNOWNREFERER 3
Mozilla/5.0_(compatible;_NetcraftSurveyAgent/1.0;__info@netcraft.com) 20190305121211
fasthttp 20190309072836
Go-http-client/1.1 20190323144554
END_UNKNOWNREFERER

# Unknown referer Browser - Last visit date
BEGIN_UNKNOWNREFERERBROWSER 2
fasthttp 20190309072836
Go-http-client/1.1 20190323144554
END_UNKNOWNREFERERBROWSER

# Origin - Pages - Hits 
BEGIN_ORIGIN 6
From0 28 28
From1 0 0
From2 0 0
From3 0 0
From4 0 0
From5 0 0
END_ORIGIN

# Search engine referers ID - Pages - Hits
BEGIN_SEREFERRALS 0
END_SEREFERRALS

# External page referers - Pages - Hits
# The 25 first Pages must be first (order not required for others)
BEGIN_PAGEREFS 0
END_PAGEREFS

# Search keyphrases - Number of search
# The 10 first number of search must be first (order not required for others)
BEGIN_SEARCHWORDS 0
END_SEARCHWORDS

# Search keywords - Number of search
# The 25 first number of search must be first (order not required for others)
BEGIN_KEYWORDS 0
END_KEYWORDS

# Errors - Hits - Bandwidth
BEGIN_ERRORS 3
401 28 880066
400 6 312
404 25 0
END_ERRORS

# URL with 404 errors - Hits - Last URL referrer
BEGIN_SIDER_404 10
/catalog/ 2 -
/admin/login.php 1 -
/admin/images/cal_date_over.gif 1 -
/cart/ 1 -
/store/ 2 -
/shop/ 2 -
/fckeditor/editor/filemanager/connectors/php/upload.php 1 -
/robots.txt 7 -
/templates/system/css/system.css 1 -
/.well-known/assetlinks.json 7 -
END_SIDER_404

# Host - Pages - Hits - Bandwidth - Last visit date - [Start date of last visit] - [Last page of last visit]
# [Start date of last visit] and [Last page of last visit] are saved only if session is not finished
# The 25 first Hits must be first (order not required for others)
BEGIN_VISITOR 21
13.57.233.99 7 7 9191 20190323175838
60.191.38.77 2 2 2626 20190318065228
34.219.205.197 1 1 1313 20190315092826
54.212.198.147 1 1 1313 20190301105105
134.209.38.151 1 1 1313 20190305114935
54.189.129.24 1 1 1313 20190318113005
34.212.228.193 1 1 1313 20190314093941
134.209.46.145 1 1 1313 20190304231730
54.191.224.54 1 1 1313 20190306084905
54.187.145.79 1 1 1313 20190303103431
54.149.233.16 1 1 1313 20190320095411
34.211.228.216 1 1 1313 20190310064811
34.73.236.160 1 1 1313 20190308222835
34.216.53.99 1 1 1313 20190322141112
94.23.208.210 1 1 1313 20190318104244
185.249.197.229 1 1 1313 20190309072836
68.183.51.135 1 1 1313 20190304231950
54.148.63.92 1 1 1313 20190305070516
34.218.47.38 1 1 1313 20190323144554
134.209.33.27 1 1 1313 20190305121211
54.191.56.66 1 1 1313 20190317110424
END_VISITOR

# Date - Pages - Hits - Bandwidth - Visits
BEGIN_DAY 17
20190301 2 2 2626 2
20190303 1 1 1313 1
20190304 3 3 3939 3
20190305 3 3 3939 3
20190306 1 1 1313 1
20190307 1 1 1313 1
20190308 1 1 1313 1
20190309 1 1 1313 1
20190310 2 2 2626 2
20190311 1 1 1313 1
20190314 1 1 1313 1
20190315 1 1 1313 1
20190317 2 2 2626 2
20190318 3 3 3939 3
20190320 2 2 2626 2
20190322 1 1 1313 1
20190323 2 2 2626 2
END_DAY

# Session range - Number of visits
BEGIN_SESSION 1
0s-30s 28
END_SESSION

# URL - Pages - Bandwidth - Entry - Exit
# The 25 first Pages must be first (order not required for others)
BEGIN_SIDER 1
/ 28 36764 28 28
END_SIDER
