AWSTATS DATA FILE 7.7 (build 20180105)
# If you remove this file, all statistics for date 201812 will be lost/reset.
# Last config file used to build this data file was /home/proig/tmp/awstats/ssl/awstats.tv.proig.com.br.conf.

# Position (offset in bytes) in this file for beginning of each section for
# direct I/O access. If you made changes somewhere in this file, you should
# also remove completely the MAP section (AWStats will rewrite it at next
# update).
BEGIN_MAP 28
POS_GENERAL 2013                
POS_TIME 2672                
POS_VISITOR 5786                
POS_DAY 5933                
POS_DOMAIN 3169                
POS_LOGIN 3403                
POS_ROBOT 3558                
POS_WORMS 3735                
POS_EMAILSENDER 3866                
POS_EMAILRECEIVER 4009                
POS_SESSION 6046                
POS_SIDER 6192                
POS_FILETYPES 4144                
POS_DOWNLOADS 4224                
POS_OS 4272                
POS_BROWSER 4362                
POS_SCREENSIZE 4440                
POS_UNKNOWNREFERER 4514                
POS_UNKNOWNREFERERBROWSER 4686                
POS_ORIGIN 4768                
POS_SEREFERRALS 4898                
POS_PAGEREFS 5042                
POS_SEARCHWORDS 5190                
POS_KEYWORDS 5342                
POS_MISC 2336                
POS_ERRORS 5401                
POS_CLUSTER 3259                
POS_SIDER_404 5477                
END_MAP

# LastLine    = Date of last record processed - Last record line number in last log - Last record offset in last log - Last record signature value
# FirstTime   = Date of first visit for history file
# LastTime    = Date of last visit for history file
# LastUpdate  = Date of last update - Nb of parsed records - Nb of parsed old records - Nb of parsed new records - Nb of parsed corrupted - Nb of parsed dropped
# TotalVisits = Number of visits
# TotalUnique = Number of unique visitors
# MonthHostsKnown   = Number of hosts known
# MonthHostsUnKnown = Number of hosts unknown
BEGIN_GENERAL 8
LastLine 20190102215811 1 0 11117623004782
FirstTime 0
LastTime 20181229062810
LastUpdate 20190103201841 1 0 0 0 0
TotalVisits 3                   
TotalUnique 2                   
MonthHostsKnown 0                   
MonthHostsUnknown 2                   
END_GENERAL

# Misc ID - Pages - Hits - Bandwidth
BEGIN_MISC 10
TotalMisc 0 0 0
RealPlayerSupport 0 0 0
AddToFavourites 0 0 0
PDFSupport 0 0 0
WindowsMediaPlayerSupport 0 0 0
FlashSupport 0 0 0
QuickTimeSupport 0 0 0
DirectorSupport 0 0 0
JavascriptDisabled 0 0 0
JavaEnabled 0 0 0
END_MISC

# Hour - Pages - Hits - Bandwidth - Not viewed Pages - Not viewed Hits - Not viewed Bandwidth
BEGIN_TIME 24
0 0 0 0 1 1 623
1 0 0 0 0 0 0
2 0 0 0 0 0 0
3 0 0 0 0 0 0
4 0 0 0 0 0 0
5 0 0 0 0 0 0
6 1 1 623 0 0 0
7 0 0 0 0 0 0
8 0 0 0 0 0 0
9 0 0 0 1 1 623
10 1 1 623 0 0 0
11 0 0 0 0 0 0
12 0 0 0 0 0 0
13 0 0 0 0 0 0
14 0 0 0 0 0 0
15 1 1 623 1 1 623
16 0 0 0 0 0 0
17 0 0 0 1 1 623
18 0 0 0 0 0 0
19 0 0 0 1 1 623
20 0 0 0 1 1 623
21 0 0 0 0 0 0
22 0 0 0 0 0 0
23 0 0 0 1 1 623
END_TIME

# Domain - Pages - Hits - Bandwidth
# The 25 first Pages must be first (order not required for others)
BEGIN_DOMAIN 2
cn 2 2 1246
us 1 1 623
END_DOMAIN

# Cluster ID - Pages - Hits - Bandwidth
BEGIN_CLUSTER 0
END_CLUSTER

# Login - Pages - Hits - Bandwidth - Last visit
# The 10 first Pages must be first (order not required for others)
BEGIN_LOGIN 0
END_LOGIN

# Robot ID - Hits - Bandwidth - Last visit - Hits on robots.txt
# The 25 first Hits must be first (order not required for others)
BEGIN_ROBOT 1
bot[\s_+:,\.\;\/\\-] 7 4361 20181224230036 0
END_ROBOT

# Worm ID - Hits - Bandwidth - Last visit
# The 5 first Hits must be first (order not required for others)
BEGIN_WORMS 0
END_WORMS

# EMail - Hits - Bandwidth - Last visit
# The 20 first Hits must be first (order not required for others)
BEGIN_EMAILSENDER 0
END_EMAILSENDER

# EMail - Hits - Bandwidth - Last visit
# The 20 first hits must be first (order not required for others)
BEGIN_EMAILRECEIVER 0
END_EMAILRECEIVER

# Files type - Hits - Bandwidth - Bandwidth without compression - Bandwidth after compression
BEGIN_FILETYPES 1
html 3 1869 0 0
END_FILETYPES

# Downloads - Hits - Bandwidth
BEGIN_DOWNLOADS 0
END_DOWNLOADS

# OS ID - Hits
BEGIN_OS ID - Hits - Pages 2
Unknown 1 1
macosx11 2 2
END_OS

# Browser ID - Hits - Pages
BEGIN_BROWSER 2
firefox47.0 2 2
mozilla 1 1
END_BROWSER

# Screen size - Hits
BEGIN_SCREENSIZE 0
END_SCREENSIZE

# Unknown referer OS - Last visit date
BEGIN_UNKNOWNREFERER 1
Mozilla/5.0_(compatible;_NetcraftSurveyAgent/1.0;__info@netcraft.com) 20181210100642
END_UNKNOWNREFERER

# Unknown referer Browser - Last visit date
BEGIN_UNKNOWNREFERERBROWSER 0
END_UNKNOWNREFERERBROWSER

# Origin - Pages - Hits 
BEGIN_ORIGIN 6
From0 3 3
From1 0 0
From2 0 0
From3 0 0
From4 0 0
From5 0 0
END_ORIGIN

# Search engine referers ID - Pages - Hits
BEGIN_SEREFERRALS 0
END_SEREFERRALS

# External page referers - Pages - Hits
# The 25 first Pages must be first (order not required for others)
BEGIN_PAGEREFS 0
END_PAGEREFS

# Search keyphrases - Number of search
# The 10 first number of search must be first (order not required for others)
BEGIN_SEARCHWORDS 0
END_SEARCHWORDS

# Search keywords - Number of search
# The 25 first number of search must be first (order not required for others)
BEGIN_KEYWORDS 0
END_KEYWORDS

# Errors - Hits - Bandwidth
BEGIN_ERRORS 0
END_ERRORS

# URL with 404 errors - Hits - Last URL referrer
BEGIN_SIDER_404 0
END_SIDER_404

# Host - Pages - Hits - Bandwidth - Last visit date - [Start date of last visit] - [Last page of last visit]
# [Start date of last visit] and [Last page of last visit] are saved only if session is not finished
# The 25 first Hits must be first (order not required for others)
BEGIN_VISITOR 2
60.191.38.77 2 2 1246 20181229062810
159.65.179.242 1 1 623 20181210100642
END_VISITOR

# Date - Pages - Hits - Bandwidth - Visits
BEGIN_DAY 3
20181210 1 1 623 1
20181228 1 1 623 1
20181229 1 1 623 1
END_DAY

# Session range - Number of visits
BEGIN_SESSION 1
0s-30s 3
END_SESSION

# URL - Pages - Bandwidth - Entry - Exit
# The 25 first Pages must be first (order not required for others)
BEGIN_SIDER 1
/ 3 1869 3 3
END_SIDER
